<svg width="93" height="72" viewBox="0 0 93 72" fill="none" xmlns="http://www.w3.org/2000/svg">
<path d="M65.0607 37.0607C65.6464 36.4749 65.6464 35.5251 65.0607 34.9394L55.5147 25.3934C54.9289 24.8076 53.9792 24.8076 53.3934 25.3934C52.8076 25.9792 52.8076 26.929 53.3934 27.5147L61.8787 36L53.3934 44.4853C52.8076 45.0711 52.8076 46.0208 53.3934 46.6066C53.9792 47.1924 54.9289 47.1924 55.5147 46.6066L65.0607 37.0607ZM-5.24537e-07 37.5L64 37.5L64 34.5L5.24537e-07 34.5L-5.24537e-07 37.5Z" fill="white"/>
<circle cx="57" cy="36" r="34.5" transform="rotate(-180 57 36)" stroke="white" stroke-width="3"/>
</svg>
